eda_sk
…
model.data %>% group_by(ShortName) %>% summarise('AvgFantasyPoints' = mean(NextWeekFantasyPoints), 'AvgWeeklyFantasyPoints'=mean(CumulativeAverageFantasyPoints), 'Observations'=n())

## # A tibble: 29 x 4
##    ShortName         AvgFantasyPoints AvgWeeklyFantasyPoints Observations
##    <chr>                        <dbl>                  <dbl>        <int>
##  1 A. Dalton                     15.6                   15.4           12
##  2 A. Smith                      19.4                   21.0           12
##  3 B. Bortles                    17.8                   15.4           11
##  4 B. Hundley                    14.4                   11.6            8
##  5 B. Roethlisberger             19.4                   15.8           11
##  6 C. Keenum                     15.6                   15.2           13
##  7 C. Newton                     20.5                   17.7           13
##  8 C. Wentz                      22.5                   20.5           10
##  9 D. Brees                      15.7                   17.6           13
## 10 D. Carr                       13.4                   14.4           12
## # ... with 19 more rows

test.data %>% group_by(ShortName) %>% summarise('AvgFantasyPoints' = mean(NextWeekFantasyPoints), 'AvgWeeklyFantasyPoints'=mean(CumulativeAverageFantasyPoints), 'Observations'=n())

## # A tibble: 33 x 4
##    ShortName         AvgFantasyPoints AvgWeeklyFantasyPoints Observations
##    <chr>                        <dbl>                  <dbl>        <int>
##  1 A. Dalton                     14.7                   18.1            8
##  2 A. Luck                       21.7                   20.5           13
##  3 A. Rodgers                    20.9                   20.4           12
##  4 A. Smith                      12.6                   15.4            7
##  5 B. Bortles                    17.6                   18.9            6
##  6 B. Mayfield                   17.7                   14.8           13
##  7 B. Roethlisberger             20.7                   22.0           13
##  8 C. Keenum                     13.5                   13.6           13
##  9 C. Newton                     18.8                   23.1           11
## 10 C. Wentz                      20.1                   18.0            9
## # ... with 23 more rows
…
anova_data %>% group_by(ShortName, TeamIsHome) %>% summarise('AvgPoints'= mean(FantasyPoints),'Games'= n())

## # A tibble: 54 x 4
## # Groups:   ShortName [27]
##    ShortName TeamIsHome AvgPoints Games
##    <chr>     <lgl>          <dbl> <int>
##  1 ADalton   FALSE           16.6    20
##  2 ADalton   TRUE            15.1    21
##  3 ALuck     FALSE           19.7    16
##  4 ALuck     TRUE            21.3    15
##  5 ARodgers  FALSE           23.4    16
##  6 ARodgers  TRUE            21.1    15
##  7 ASmith    FALSE           17.7    18
##  8 ASmith    TRUE            16.0    21
##  9 BBortles  FALSE           15.9    19
## 10 BBortles  TRUE            18.6    20
## # ... with 44 more rows
…
